{
    "/assets/build/js/custom.js": "/assets/build/js/custom.js",
    "/assets/build/css/custom.css": "/assets/build/css/custom.css",
    "/public/css/app.css": "/public/css/app.css",
    "/public/js/app.js": "/public/js/app.js"
}